,,,,,,,,,
a,c,a,r,r,o,g,h,i,c
a,b,c,d,e,f,g,h,i,a
a,b,c,d,e,f,g,h,i,s
a,b,c,d,e,f,g,h,i,a
a,b,o,d,e,f,g,h,i,j
a,b,r,d,e,f,g,h,i,j
a,b,r,d,e,f,g,h,i,j
a,b,e,d,e,f,g,h,i,j
a,b,p,u,n,t,o,h,i,j
a,b,c,d,e,f,r,u,t,a
